* source NEGATIVEFEEDBACK
R_R2         N00011 N00045  10k  
R_R1         N00120 N00011  1k  
X_U2A         N00011 0 N00418 N00445 N00045 LM324
V_V1         N00120 0  
+SIN 0 100m 1k 0 0 0
V_V2         N00418 0 12
V_V3         0 N00445 12
